{
  "content": [
    {
      "deckId": 189,
      "userId": "58427ecefe334c1e5c6a31e7",
      "type": "card",
      "authorImage": "https://scontent.xx.fbcdn.net/v/t1.0-1/c0.0.480.480/p480x480/14100443_10153667037171104_5568672191828482887_n.jpg?oh=4018a7b955d43a168df0864770d9f167&oe=58FAA370",
      "author": "Chetan Kabu",
      "authorHandle": "@karbide",
      "categories": [
        "general"
      ],
      "tags": [
        "online"
      ],
      "approver": {
        "liveDays": 10,
        "ranking": "5",
        "liveOnDate": 1482192000000,
        "comments": ""
      },
      "publishedDate": 1482248112000,
      "status": "Published",
      "likes": 0,
      "dislikes": 0,
      "cards": [
        {
          "id": "585955160758fd2abc6d2e11",
          "title": "Gunman Who Shot 3 at Zurich Islamic Center Is Found Dead, Police Say",
          "content": "The man, who apparently committed suicide after escaping from the site of the shooting, had no known links to terrorist groups, officials said.",
          "articleWebUrl": "http://www.nytimes.com/2016/12/20/world/europe/zurich-mosque-attack.html",
          "articleSourceLogo": "http://i.newsapi.org/google-news-s.png",
          "articleSourceName": "google-news",
          "media": {
            "id": null,
            "mediaType": "image",
            "mediaUrl": "https://static01.nyt.com/images/2016/12/21/world/21ZURICH-1/21ZURICH-1-facebookJumbo.jpg",
            "mediaCredit": "<a href=\"newsapi.org\">powered by  NewsAPI.org</a>"
          },
          "template": "70_30",
          "weight": 3
        }
      ],
      "apiFeedSource": "google-news",
      "publisher": "newsapi.org"
    },
    {
      "deckId": 152,
      "userId": "58427ecefe334c1e5c6a31e7",
      "type": "card",
      "authorImage": "https://scontent.xx.fbcdn.net/v/t1.0-1/c0.0.480.480/p480x480/14100443_10153667037171104_5568672191828482887_n.jpg?oh=4018a7b955d43a168df0864770d9f167&oe=58FAA370",
      "author": "Chetan Kabu",
      "authorHandle": "@karbide",
      "categories": [
        "sport"
      ],
      "tags": [
        "online"
      ],
      "approver": {
        "liveDays": 10,
        "ranking": "5",
        "liveOnDate": 1482192000000,
        "comments": ""
      },
      "publishedDate": 1482248034000,
      "status": "Published",
      "likes": 0,
      "dislikes": 0,
      "cards": [
        {
          "id": "5859550b0758fd2abc6d2dec",
          "title": "Kings opt to fine Cousins for tirade vs. reporter",
          "content": "Kings center DeMarcus Cousins will not be suspended for his tirade against a local columnist, but he has been fined by the team.",
          "articleWebUrl": "http://www.espn.com/nba/story/_/id/18317916",
          "articleSourceLogo": "http://i.newsapi.org/espn-s.png",
          "articleSourceName": "espn",
          "media": {
            "id": null,
            "mediaType": "image",
            "mediaUrl": "http://a2.espncdn.com/combiner/i?img=%2Fphoto%2F2014%2F0123%2Fnba_g_cuz_cr_1296x729.jpg",
            "mediaCredit": "<a href=\"newsapi.org\">powered by  NewsAPI.org</a>"
          },
          "template": "70_30",
          "weight": 6
        }
      ],
      "apiFeedSource": "espn",
      "publisher": "newsapi.org"
    },
    {
      "deckId": 159,
      "userId": "58427ecefe334c1e5c6a31e7",
      "type": "card",
      "authorImage": "https://scontent.xx.fbcdn.net/v/t1.0-1/c0.0.480.480/p480x480/14100443_10153667037171104_5568672191828482887_n.jpg?oh=4018a7b955d43a168df0864770d9f167&oe=58FAA370",
      "author": "Chetan Kabu",
      "authorHandle": "@karbide",
      "categories": [
        "sport"
      ],
      "tags": [
        "online"
      ],
      "approver": {
        "liveDays": 10,
        "ranking": "5",
        "liveOnDate": 1482192000000,
        "comments": ""
      },
      "publishedDate": 1482248034000,
      "status": "Published",
      "likes": 0,
      "dislikes": 0,
      "cards": [
        {
          "id": "5859550c0758fd2abc6d2df3",
          "title": "Kings opt to fine Cousins for tirade vs. reporter",
          "content": "Kings center DeMarcus Cousins will not be suspended for his tirade against a local columnist, but he has been fined by the team.",
          "articleWebUrl": "http://www.espn.com/nba/story/_/id/18317916",
          "articleSourceLogo": "http://i.newsapi.org/espn-s.png",
          "articleSourceName": "espn",
          "media": {
            "id": null,
            "mediaType": "image",
            "mediaUrl": "http://a2.espncdn.com/combiner/i?img=%2Fphoto%2F2014%2F0123%2Fnba_g_cuz_cr_1296x729.jpg",
            "mediaCredit": "<a href=\"newsapi.org\">powered by  NewsAPI.org</a>"
          },
          "template": "70_30",
          "weight": 3
        }
      ],
      "apiFeedSource": "espn",
      "publisher": "newsapi.org"
    },
    {
      "deckId": 160,
      "userId": "58427ecefe334c1e5c6a31e7",
      "type": "card",
      "authorImage": "https://scontent.xx.fbcdn.net/v/t1.0-1/c0.0.480.480/p480x480/14100443_10153667037171104_5568672191828482887_n.jpg?oh=4018a7b955d43a168df0864770d9f167&oe=58FAA370",
      "author": "Chetan Kabu",
      "authorHandle": "@karbide",
      "categories": [
        "sport"
      ],
      "tags": [
        "online"
      ],
      "approver": {
        "liveDays": 10,
        "ranking": "5",
        "liveOnDate": 1482192000000,
        "comments": ""
      },
      "publishedDate": 1482248034000,
      "status": "Published",
      "likes": 0,
      "dislikes": 0,
      "cards": [
        {
          "id": "5859550c0758fd2abc6d2df4",
          "title": "Kings opt to fine Cousins for tirade vs. reporter",
          "content": "Kings center DeMarcus Cousins will not be suspended for his tirade against a local columnist, but he has been fined by the team.",
          "articleWebUrl": "http://www.espn.com/nba/story/_/id/18317916",
          "articleSourceLogo": "http://i.newsapi.org/espn-s.png",
          "articleSourceName": "espn",
          "media": {
            "id": null,
            "mediaType": "image",
            "mediaUrl": "http://a2.espncdn.com/combiner/i?img=%2Fphoto%2F2014%2F0123%2Fnba_g_cuz_cr_1296x729.jpg",
            "mediaCredit": "<a href=\"newsapi.org\">powered by  NewsAPI.org</a>"
          },
          "template": "70_30",
          "weight": 4
        }
      ],
      "apiFeedSource": "espn",
      "publisher": "newsapi.org"
    },
    {
      "deckId": 177,
      "userId": "58427ecefe334c1e5c6a31e7",
      "type": "card",
      "authorImage": "https://scontent.xx.fbcdn.net/v/t1.0-1/c0.0.480.480/p480x480/14100443_10153667037171104_5568672191828482887_n.jpg?oh=4018a7b955d43a168df0864770d9f167&oe=58FAA370",
      "author": "Chetan Kabu",
      "authorHandle": "@karbide",
      "categories": [
        "business"
      ],
      "tags": [
        "online"
      ],
      "approver": {
        "liveDays": 10,
        "ranking": "5",
        "liveOnDate": 1482192000000,
        "comments": ""
      },
      "publishedDate": 1482248030000,
      "status": "Published",
      "likes": 0,
      "dislikes": 0,
      "cards": [
        {
          "id": "585955110758fd2abc6d2e05",
          "title": "Why Some IBM Employees Are Complaining About a CEO Letter to Trump",
          "content": "Online petition says Trump's immigration stance runs afoul of IBM values.",
          "articleWebUrl": "http://fortune.com/2016/12/20/trump-ibm-ginni-rometty/",
          "articleSourceLogo": "http://i.newsapi.org/fortune-s.png",
          "articleSourceName": "fortune",
          "media": {
            "id": null,
            "mediaType": "image",
            "mediaUrl": "https://fortunedotcom.files.wordpress.com/2016/10/ginni-rometty-2016-mpw-summit-california-gettyimages-615446304.jpg?w=820&amp;h=570&amp;crop=1",
            "mediaCredit": "<a href=\"newsapi.org\">powered by  NewsAPI.org</a>"
          },
          "template": "70_30",
          "weight": 1
        }
      ],
      "apiFeedSource": "fortune",
      "publisher": "newsapi.org"
    },
    {
      "deckId": 117,
      "userId": "58427ecefe334c1e5c6a31e7",
      "type": "card",
      "authorImage": "https://scontent.xx.fbcdn.net/v/t1.0-1/c0.0.480.480/p480x480/14100443_10153667037171104_5568672191828482887_n.jpg?oh=4018a7b955d43a168df0864770d9f167&oe=58FAA370",
      "author": "Chetan Kabu",
      "authorHandle": "@karbide",
      "categories": [
        "business"
      ],
      "tags": [
        "online"
      ],
      "approver": {
        "liveDays": 10,
        "ranking": "5",
        "liveOnDate": 1482192000000,
        "comments": ""
      },
      "publishedDate": 1482247977000,
      "status": "Published",
      "likes": 0,
      "dislikes": 0,
      "cards": [
        {
          "id": "585955010758fd2abc6d2dc9",
          "title": "America's biggest coal stronghold is not in West Virginia — but it's losing momentum too",
          "content": "Cheap, low-sulfur coal from one state feeds the west, but the region is shifting to natural gas and renewable energy.",
          "articleWebUrl": "http://www.cnbc.com/2016/12/20/coals-us-stronghold-is-losing-steam-even-as-trump-aims-for-a-revival.html",
          "articleSourceLogo": "http://i.newsapi.org/cnbc-s.png",
          "articleSourceName": "cnbc",
          "media": {
            "id": null,
            "mediaType": "image",
            "mediaUrl": "http://fm.cnbc.com/applications/cnbc.com/resources/img/editorial/2016/12/19/104176162-GettyImages-161350847.1910x1000.jpg",
            "mediaCredit": "<a href=\"newsapi.org\">powered by  NewsAPI.org</a>"
          },
          "template": "70_30",
          "weight": 1
        }
      ],
      "apiFeedSource": "cnbc",
      "publisher": "newsapi.org"
    },
    {
      "deckId": 176,
      "userId": "58427ecefe334c1e5c6a31e7",
      "type": "card",
      "authorImage": "https://scontent.xx.fbcdn.net/v/t1.0-1/c0.0.480.480/p480x480/14100443_10153667037171104_5568672191828482887_n.jpg?oh=4018a7b955d43a168df0864770d9f167&oe=58FAA370",
      "author": "Chetan Kabu",
      "authorHandle": "@karbide",
      "categories": [
        "business"
      ],
      "tags": [
        "online"
      ],
      "approver": {
        "liveDays": 10,
        "ranking": "5",
        "liveOnDate": 1482192000000,
        "comments": ""
      },
      "publishedDate": 1482247946000,
      "status": "Published",
      "likes": 0,
      "dislikes": 0,
      "cards": [
        {
          "id": "585955110758fd2abc6d2e04",
          "title": "Tim Cook Promises New and 'Great' Mac Desktops",
          "content": "But just not this year.",
          "articleWebUrl": "http://fortune.com/2016/12/20/tim-cook-promises-new-macs/",
          "articleSourceLogo": "http://i.newsapi.org/fortune-s.png",
          "articleSourceName": "fortune",
          "media": {
            "id": null,
            "mediaType": "image",
            "mediaUrl": "https://fortunedotcom.files.wordpress.com/2016/10/gettyimages-618583564.jpg?w=820&amp;h=570&amp;crop=1",
            "mediaCredit": "<a href=\"newsapi.org\">powered by  NewsAPI.org</a>"
          },
          "template": "Full",
          "weight": 10
        }
      ],
      "apiFeedSource": "fortune",
      "publisher": "newsapi.org"
    },
    {
      "deckId": 128,
      "userId": "58427ecefe334c1e5c6a31e7",
      "type": "card",
      "authorImage": "https://scontent.xx.fbcdn.net/v/t1.0-1/c0.0.480.480/p480x480/14100443_10153667037171104_5568672191828482887_n.jpg?oh=4018a7b955d43a168df0864770d9f167&oe=58FAA370",
      "author": "Chetan Kabu",
      "authorHandle": "@karbide",
      "categories": [
        "general"
      ],
      "tags": [
        "online"
      ],
      "approver": {
        "liveDays": 10,
        "ranking": "5",
        "liveOnDate": 1482192000000,
        "comments": ""
      },
      "publishedDate": 1482247922000,
      "status": "Published",
      "likes": 0,
      "dislikes": 0,
      "cards": [
        {
          "id": "585955040758fd2abc6d2dd4",
          "title": "Photographer describes Russia envoy's killing",
          "content": "The Associated Press photographer who captured viral images of slain Russian envoy Andrei Karlov has recalled the moment the gunman opened fire.",
          "articleWebUrl": "http://www.cnn.com/2016/12/20/europe/ap-photographer-russia-ambassador-killing/index.html",
          "articleSourceLogo": "http://i.newsapi.org/cnn-s.png",
          "articleSourceName": "cnn",
          "media": {
            "id": null,
            "mediaType": "image",
            "mediaUrl": "http://i2.cdn.cnn.com/cnnnext/dam/assets/161219121710-05-andrey-karlov-shooting-1219-super-tease.jpg",
            "mediaCredit": "<a href=\"newsapi.org\">powered by  NewsAPI.org</a>"
          },
          "template": "70_30",
          "weight": 2
        }
      ],
      "apiFeedSource": "cnn",
      "publisher": "newsapi.org"
    },
    {
      "deckId": 134,
      "userId": "58427ecefe334c1e5c6a31e7",
      "type": "card",
      "authorImage": "https://scontent.xx.fbcdn.net/v/t1.0-1/c0.0.480.480/p480x480/14100443_10153667037171104_5568672191828482887_n.jpg?oh=4018a7b955d43a168df0864770d9f167&oe=58FAA370",
      "author": "Chetan Kabu",
      "authorHandle": "@karbide",
      "categories": [
        "general"
      ],
      "tags": [
        "online"
      ],
      "approver": {
        "liveDays": 10,
        "ranking": "5",
        "liveOnDate": 1482192000000,
        "comments": ""
      },
      "publishedDate": 1482247666000,
      "status": "Published",
      "likes": 0,
      "dislikes": 0,
      "cards": [
        {
          "id": "585955050758fd2abc6d2dda",
          "title": "Michelle Obama: Why I am helping Trump",
          "content": "While Michelle Obama was a harsh critic of Donald Trump on the campaign trail, the first lady says in an interview that she is supportive of the country's incoming new leader.",
          "articleWebUrl": "http://www.cnn.com/2016/12/20/politics/michelle-obama-oprah-trump-transition/index.html",
          "articleSourceLogo": "http://i.newsapi.org/cnn-s.png",
          "articleSourceName": "cnn",
          "media": {
            "id": null,
            "mediaType": "image",
            "mediaUrl": "http://i2.cdn.cnn.com/cnnnext/dam/assets/161219233522-flotus-michelle-obama-interview-with-oprah-jpm-orig-00000126-super-tease.jpg",
            "mediaCredit": "<a href=\"newsapi.org\">powered by  NewsAPI.org</a>"
          },
          "template": "70_30",
          "weight": 8
        }
      ],
      "apiFeedSource": "cnn",
      "publisher": "newsapi.org"
    },
    {
      "deckId": 85,
      "userId": "58427ecefe334c1e5c6a31e7",
      "type": "card",
      "authorImage": "https://scontent.xx.fbcdn.net/v/t1.0-1/c0.0.480.480/p480x480/14100443_10153667037171104_5568672191828482887_n.jpg?oh=4018a7b955d43a168df0864770d9f167&oe=58FAA370",
      "author": "Chetan Kabu",
      "authorHandle": "@karbide",
      "categories": [
        "general"
      ],
      "tags": [
        "online"
      ],
      "approver": {
        "liveDays": 10,
        "ranking": "5",
        "liveOnDate": 1482192000000,
        "comments": ""
      },
      "publishedDate": 1482247530000,
      "status": "Published",
      "likes": 0,
      "dislikes": 0,
      "cards": [
        {
          "id": "585954f70758fd2abc6d2da9",
          "title": "Michelle Obama tells Oprah that 2016 election 'was painful'",
          "content": "WASHINGTON (AP) — First lady Michelle Obama tells Oprah Winfrey that this past election was \"painful,\" but says she and her husband will support President-elect Donald Trump's ongoing transition to the White House and…",
          "articleWebUrl": "http://bigstory.ap.org/article/87032d18801b48918d0e577248bcf2ac",
          "articleSourceLogo": "http://i.newsapi.org/associated-press-s.png",
          "articleSourceName": "associated-press",
          "media": {
            "id": null,
            "mediaType": "image",
            "mediaUrl": "http://binaryapi.ap.org/92827777351245fa8679073e58b248bc/460x.jpg",
            "mediaCredit": "<a href=\"newsapi.org\">powered by  NewsAPI.org</a>"
          },
          "template": "50_50",
          "weight": 9
        }
      ],
      "apiFeedSource": "associated-press",
      "publisher": "newsapi.org"
    }
  ],
  "totalPages": 13,
  "totalElements": 125,
  "last": false,
  "size": 10,
  "number": 0,
  "sort": [
    {
      "direction": "DESC",
      "property": "publishedDate",
      "ignoreCase": false,
      "nullHandling": "NATIVE",
      "ascending": false
    }
  ],
  "numberOfElements": 10,
  "first": true
}